<svg xmlns="http://www.w3.org/2000/svg" width="22.001" height="22.001" viewBox="0 0 22.001 22.001">
  <path id="frown-open" d="M11,8A11,11,0,1,0,22,19,11,11,0,0,0,11,8Zm0,19.872A8.871,8.871,0,1,1,19.872,19,8.88,8.88,0,0,1,11,27.872Zm-2.129-11a1.419,1.419,0,1,0-1.419,1.419A1.418,1.418,0,0,0,8.871,16.871Zm5.678-1.419a1.419,1.419,0,1,0,1.419,1.419A1.418,1.418,0,0,0,14.549,15.452ZM11,20.42c-1.579,0-3.939.945-4.249,2.715a.713.713,0,0,0,.909.8A13.406,13.406,0,0,1,11,23.259a13.406,13.406,0,0,1,3.34.679.713.713,0,0,0,.909-.8C14.94,21.365,12.58,20.42,11,20.42Z" transform="translate(0 -8)" fill="#cb0d0d"/>
</svg>
